{
  "remediations": [],
  "version": "15.0.2",
  "vulnerabilities": [
    {
      "description": "JavaScript or CSS source files are included from third party domains without\n[Sub-Resource Integrity (SRI)](https://developer.mozilla.org/en-US/docs/Web/Security/Subresource_Integrity).\nIf an attacker were to compromise the sites hosting these third party resources, they could inject malicious\nscript or CSS data in an attempt to compromise users of your application. However, if SRI was applied and an\nattacker attempted to modify the contents of the script, the browser would not load the script and your\napplications users would be protected from the malicious alterations.",
      "details": {
        "discovered_at": {
          "name": "discovered_at",
          "type": "text",
          "value": "2022-12-08T06:07:05.971"
        },
        "urls": {
          "items": [
            {
              "href": "http://pancakes/",
              "type": "url"
            }
          ],
          "name": "URLs",
          "type": "list"
        }
      },
      "evidence": {
        "request": {
          "headers": [
            {
              "name": "Accept",
              "value": "text/html,application/xhtml+xml,application/xml;q=0.9,image/avif,image/webp,image/apng,*/*;q=0.8,application/signed-exchange;v=b3;q=0.9"
            },
            {
              "name": "Accept-Encoding",
              "value": "gzip, deflate"
            },
            {
              "name": "Accept-Language",
              "value": "en-US"
            },
            {
              "name": "Cookie",
              "value": "dast_scan=browserker"
            },
            {
              "name": "Host",
              "value": "pancakes"
            },
            {
              "name": "Proxy-Connection",
              "value": "keep-alive"
            },
            {
              "name": "Upgrade-Insecure-Requests",
              "value": "1"
            },
            {
              "name": "User-Agent",
              "value": "Mozilla/5.0 (X11; Linux x86_64) AppleWebKit/537.36 (KHTML, like Gecko) HeadlessChrome/105.0.5195.102 Safari/537.36"
            },
            {
              "name": "Via",
              "value": "GitLab DAST/Crawler development"
            },
            {
              "name": "Via-Scanner",
              "value": "Browserker"
            },
            {
              "name": "x-scanner",
              "value": "browserker"
            },
            {
              "name": "x-scanner-app",
              "value": "pancake"
            }
          ],
          "method": "GET",
          "url": "http://pancakes/"
        },
        "response": {
          "headers": [
            {
              "name": "Accept-Ranges",
              "value": "bytes"
            },
            {
              "name": "Connection",
              "value": "keep-alive"
            },
            {
              "name": "Content-Length",
              "value": "1358"
            },
            {
              "name": "Content-Type",
              "value": "text/html"
            },
            {
              "name": "Date",
              "value": "Thu, 08 Dec 2022 06:06:56 GMT"
            },
            {
              "name": "ETag",
              "value": "\"63917e9b-54e\""
            },
            {
              "name": "Last-Modified",
              "value": "Thu, 08 Dec 2022 06:05:15 GMT"
            },
            {
              "name": "Server",
              "value": "nginx/1.22.0"
            }
          ],
          "reason_phrase": "OK",
          "status_code": 200
        },
        "summary": "A source file is included from a third party domain without Sub-Resource Integrity: <link crossorigin=\"\" href=\"https://fonts.googleapis.com/css2?family=Lato:wght@400;700&display=swapswap\" rel=\"stylesheet\">"
      },
      "id": "8a9c3fde-76be-11ed-b969-0242ac130003",
      "identifiers": [
        {
          "name": "Inclusion of Functionality from Untrusted Control Sphere",
          "type": "browserker",
          "url": "https://docs.gitlab.com/ee/user/application_security/dast/checks/829.1.html",
          "value": "829.1"
        },
        {
          "name": "CWE-829",
          "type": "CWE",
          "url": "https://cwe.mitre.org/data/definitions/829.html",
          "value": "829"
        }
      ],
      "links": [
        {
          "name": "OWASP",
          "url": "https://cheatsheetseries.owasp.org/cheatsheets/Third_Party_Javascript_Management_Cheat_Sheet.html#subresource-integrity"
        },
        {
          "name": "CWE",
          "url": "https://cwe.mitre.org/data/definitions/829.html"
        },
        {
          "name": "MDN",
          "url": "https://developer.mozilla.org/en-US/docs/Web/Security/Subresource_Integrity"
        }
      ],
      "location": {
        "hostname": "http://pancakes",
        "method": "",
        "param": "",
        "path": ""
      },
      "severity": "Low",
      "solution": "All identified resources should be sourced from the same domain as the target application. If this is not\npossible, it is strongly recommended that all `script` tags that implement `src` values, or `link` tags\nthat implement the `href` values include Sub-Resource Integrity. To generate SRI integrity values the\n[srihash](https://www.srihash.org/) tool can be used, or by running one of the following commands:\n\n- `cat FILENAME.js | openssl dgst -sha384 -binary | openssl base64 -A`\n- `shasum -b -a 384 FILENAME.js | awk '{ print $1 }' | xxd -r -p | base64`\n\nThe output of these tools must be added as additional attributes, in particular: `integrity` and either\n`crossorigin=anonymous` or `crossorigin=use-credentials`.\nAn example of a valid SRI protected script tag can be found below:\n\n```html\n<script src=\"https://example.com/example-framework.js\"\n    integrity=\"sha384-oqVuAfXRKap7fdgcCY5uykM6+R9GqQ8K/uxy9rx7HNQlGYl1kPzQho1wx4JwY8wC\"\n    crossorigin=\"anonymous\"></script>\n```"
    },
    {
      "description": "The `X-Content-Type-Options` header with the value `nosniff` ensures that user agents do not attempt to\nguess the format of the data being received. User Agents such as browsers, commonly attempt to guess\nwhat the resource type being requested is, through a process called MIME type sniffing.\n\nWithout this header being sent, the browser may misinterpret the data, leading to MIME confusion attacks.\nIf an attacker were able to upload files that are accessible by using a browser, they could upload files\nthat could be interpreted as HTML and execute Cross-Site Scripting (XSS) attacks.",
      "details": {
        "discovered_at": {
          "name": "discovered_at",
          "type": "text",
          "value": "2022-12-08T06:07:05.958"
        },
        "urls": {
          "items": [
            {
              "href": "http://pancakes/",
              "type": "url"
            }
          ],
          "name": "URLs",
          "type": "list"
        }
      },
      "evidence": {
        "request": {
          "headers": [
            {
              "name": "Accept",
              "value": "text/html,application/xhtml+xml,application/xml;q=0.9,image/avif,image/webp,image/apng,*/*;q=0.8,application/signed-exchange;v=b3;q=0.9"
            },
            {
              "name": "Accept-Encoding",
              "value": "gzip, deflate"
            },
            {
              "name": "Accept-Language",
              "value": "en-US"
            },
            {
              "name": "Cookie",
              "value": "dast_scan=browserker"
            },
            {
              "name": "Host",
              "value": "pancakes"
            },
            {
              "name": "Proxy-Connection",
              "value": "keep-alive"
            },
            {
              "name": "Upgrade-Insecure-Requests",
              "value": "1"
            },
            {
              "name": "User-Agent",
              "value": "Mozilla/5.0 (X11; Linux x86_64) AppleWebKit/537.36 (KHTML, like Gecko) HeadlessChrome/105.0.5195.102 Safari/537.36"
            },
            {
              "name": "Via",
              "value": "GitLab DAST/Crawler development"
            },
            {
              "name": "Via-Scanner",
              "value": "Browserker"
            },
            {
              "name": "x-scanner",
              "value": "browserker"
            },
            {
              "name": "x-scanner-app",
              "value": "pancake"
            }
          ],
          "method": "GET",
          "url": "http://pancakes/"
        },
        "response": {
          "headers": [
            {
              "name": "Accept-Ranges",
              "value": "bytes"
            },
            {
              "name": "Connection",
              "value": "keep-alive"
            },
            {
              "name": "Content-Length",
              "value": "1358"
            },
            {
              "name": "Content-Type",
              "value": "text/html"
            },
            {
              "name": "Date",
              "value": "Thu, 08 Dec 2022 06:06:56 GMT"
            },
            {
              "name": "ETag",
              "value": "\"63917e9b-54e\""
            },
            {
              "name": "Last-Modified",
              "value": "Thu, 08 Dec 2022 06:05:15 GMT"
            },
            {
              "name": "Server",
              "value": "nginx/1.22.0"
            }
          ],
          "reason_phrase": "OK",
          "status_code": 200
        },
        "summary": "The X-Content-Type-Options header is missing or does not contain nosniff"
      },
      "id": "8a9a3867-76be-11ed-b969-0242ac130003",
      "identifiers": [
        {
          "name": "Missing X-Content-Type-Options: nosniff",
          "type": "browserker",
          "url": "https://docs.gitlab.com/ee/user/application_security/dast/checks/693.1.html",
          "value": "693.1"
        },
        {
          "name": "CWE-693",
          "type": "CWE",
          "url": "https://cwe.mitre.org/data/definitions/693.html",
          "value": "693"
        }
      ],
      "links": [
        {
          "name": "OWASP",
          "url": "https://owasp.org/www-project-secure-headers/#x-content-type-options"
        },
        {
          "name": "CWE",
          "url": "https://cwe.mitre.org/data/definitions/693.html"
        },
        {
          "name": "Mozilla Blog on MIME Confusion attacks",
          "url": "https://blog.mozilla.org/security/2016/08/26/mitigating-mime-confusion-attacks-in-firefox/"
        },
        {
          "name": "Mozilla MDN on X-Content-Type-Options",
          "url": "https://developer.mozilla.org/en-US/docs/Web/HTTP/Headers/X-Content-Type-Options"
        }
      ],
      "location": {
        "hostname": "http://pancakes",
        "method": "",
        "param": "",
        "path": ""
      },
      "severity": "Low",
      "solution": "We recommend that the header and value of `X-Content-Type-Options: nosniff` be set server wide.\nThis ensures any resources that are mistakenly missing a `Content-Type` value are not\nmisinterpreted."
    },
    {
      "description": "The target website returns the `Server` header and version information of this website. By\nexposing these values, attackers may attempt to identify if the target software is vulnerable to known\nvulnerabilities, or catalog known sites running particular versions to exploit in the future when a\nvulnerability is identified in the particular version.",
      "details": {
        "discovered_at": {
          "name": "discovered_at",
          "type": "text",
          "value": "2022-12-08T06:07:05.950"
        },
        "urls": {
          "items": [
            {
              "href": "http://pancakes/",
              "type": "url"
            }
          ],
          "name": "URLs",
          "type": "list"
        }
      },
      "evidence": {
        "request": {
          "headers": [
            {
              "name": "Accept",
              "value": "text/html,application/xhtml+xml,application/xml;q=0.9,image/avif,image/webp,image/apng,*/*;q=0.8,application/signed-exchange;v=b3;q=0.9"
            },
            {
              "name": "Accept-Encoding",
              "value": "gzip, deflate"
            },
            {
              "name": "Accept-Language",
              "value": "en-US"
            },
            {
              "name": "Cookie",
              "value": "dast_scan=browserker"
            },
            {
              "name": "Host",
              "value": "pancakes"
            },
            {
              "name": "Proxy-Connection",
              "value": "keep-alive"
            },
            {
              "name": "Upgrade-Insecure-Requests",
              "value": "1"
            },
            {
              "name": "User-Agent",
              "value": "Mozilla/5.0 (X11; Linux x86_64) AppleWebKit/537.36 (KHTML, like Gecko) HeadlessChrome/105.0.5195.102 Safari/537.36"
            },
            {
              "name": "Via",
              "value": "GitLab DAST/Crawler development"
            },
            {
              "name": "Via-Scanner",
              "value": "Browserker"
            },
            {
              "name": "x-scanner",
              "value": "browserker"
            },
            {
              "name": "x-scanner-app",
              "value": "pancake"
            }
          ],
          "method": "GET",
          "url": "http://pancakes/"
        },
        "response": {
          "headers": [
            {
              "name": "Accept-Ranges",
              "value": "bytes"
            },
            {
              "name": "Connection",
              "value": "keep-alive"
            },
            {
              "name": "Content-Length",
              "value": "1358"
            },
            {
              "name": "Content-Type",
              "value": "text/html"
            },
            {
              "name": "Date",
              "value": "Thu, 08 Dec 2022 06:06:56 GMT"
            },
            {
              "name": "ETag",
              "value": "\"63917e9b-54e\""
            },
            {
              "name": "Last-Modified",
              "value": "Thu, 08 Dec 2022 06:05:15 GMT"
            },
            {
              "name": "Server",
              "value": "nginx/1.22.0"
            }
          ],
          "reason_phrase": "OK",
          "status_code": 200
        },
        "summary": "The Server header exposes version information: nginx/1.22.0"
      },
      "id": "8a99032e-76be-11ed-b969-0242ac130003",
      "identifiers": [
        {
          "name": "Server header exposes version information",
          "type": "browserker",
          "url": "https://docs.gitlab.com/ee/user/application_security/dast/checks/16.2.html",
          "value": "16.2"
        },
        {
          "name": "CWE-16",
          "type": "CWE",
          "url": "https://cwe.mitre.org/data/definitions/16.html",
          "value": "16"
        }
      ],
      "links": [
        {
          "name": "CWE",
          "url": "https://cwe.mitre.org/data/definitions/16.html"
        },
        {
          "name": "Apache ServerTokens",
          "url": "https://blog.mozilla.org/security/2016/08/26/mitigating-mime-confusion-attacks-in-firefox/"
        },
        {
          "name": "NGINX server_tokens",
          "url": "https://nginx.org/en/docs/http/ngx_http_core_module.html#server_tokens"
        },
        {
          "name": "IIS 10 Remove Server Header",
          "url": "https://docs.microsoft.com/en-us/iis/configuration/system.webserver/security/requestfiltering/#attributes"
        }
      ],
      "location": {
        "hostname": "http://pancakes",
        "method": "",
        "param": "",
        "path": ""
      },
      "severity": "Low",
      "solution": "We recommend that the version information be removed from the `Server` header.\n\nApache:\nFor Apache based web sites, set the `ServerTokens` to `Prod` in the `httpd.conf` configuration file.\n\nNGINX:\nFor NGINX based websites, set the `server_tokens` configuration value to `off` in the `nginx.conf` file.\n\nIIS:\nFor IIS based websites version 10 and above you can use the `removeServerHeader` element to the `requestFiltering`\nsection of the `Web.config` file.\n\nFor all other server types, please consult your product's documentation on how to redact the version information from\nthe `Server` header."
    },
    {
      "description": "A missing or invalid `Content-Security-Policy` (CSP) was identified on the target site. CSP can aid in \nhardening a website against various client side attacks such as Cross-Site Scripting (XSS).",
      "details": {
        "discovered_at": {
          "name": "discovered_at",
          "type": "text",
          "value": "2022-12-08T06:07:05.950"
        },
        "urls": {
          "items": [
            {
              "href": "http://pancakes/",
              "type": "url"
            }
          ],
          "name": "URLs",
          "type": "list"
        }
      },
      "evidence": {
        "request": {
          "headers": [
            {
              "name": "Accept",
              "value": "text/html,application/xhtml+xml,application/xml;q=0.9,image/avif,image/webp,image/apng,*/*;q=0.8,application/signed-exchange;v=b3;q=0.9"
            },
            {
              "name": "Accept-Encoding",
              "value": "gzip, deflate"
            },
            {
              "name": "Accept-Language",
              "value": "en-US"
            },
            {
              "name": "Cookie",
              "value": "dast_scan=browserker"
            },
            {
              "name": "Host",
              "value": "pancakes"
            },
            {
              "name": "Proxy-Connection",
              "value": "keep-alive"
            },
            {
              "name": "Upgrade-Insecure-Requests",
              "value": "1"
            },
            {
              "name": "User-Agent",
              "value": "Mozilla/5.0 (X11; Linux x86_64) AppleWebKit/537.36 (KHTML, like Gecko) HeadlessChrome/105.0.5195.102 Safari/537.36"
            },
            {
              "name": "Via",
              "value": "GitLab DAST/Crawler development"
            },
            {
              "name": "Via-Scanner",
              "value": "Browserker"
            },
            {
              "name": "x-scanner",
              "value": "browserker"
            },
            {
              "name": "x-scanner-app",
              "value": "pancake"
            }
          ],
          "method": "GET",
          "url": "http://pancakes/"
        },
        "response": {
          "headers": [
            {
              "name": "Accept-Ranges",
              "value": "bytes"
            },
            {
              "name": "Connection",
              "value": "keep-alive"
            },
            {
              "name": "Content-Length",
              "value": "1358"
            },
            {
              "name": "Content-Type",
              "value": "text/html"
            },
            {
              "name": "Date",
              "value": "Thu, 08 Dec 2022 06:06:56 GMT"
            },
            {
              "name": "ETag",
              "value": "\"63917e9b-54e\""
            },
            {
              "name": "Last-Modified",
              "value": "Thu, 08 Dec 2022 06:05:15 GMT"
            },
            {
              "name": "Server",
              "value": "nginx/1.22.0"
            }
          ],
          "reason_phrase": "OK",
          "status_code": 200
        },
        "summary": "Content-Security-Policy header is missing"
      },
      "id": "8a990991-76be-11ed-b969-0242ac130003",
      "identifiers": [
        {
          "name": "Content-Security-Policy analysis",
          "type": "browserker",
          "url": "https://docs.gitlab.com/ee/user/application_security/dast/checks/16.8.html",
          "value": "16.8"
        },
        {
          "name": "CWE-16",
          "type": "CWE",
          "url": "https://cwe.mitre.org/data/definitions/16.html",
          "value": "16"
        }
      ],
      "links": [
        {
          "name": "CWE",
          "url": "https://cwe.mitre.org/data/definitions/16.html"
        },
        {
          "name": "OWASP",
          "url": "https://cheatsheetseries.owasp.org/cheatsheets/Content_Security_Policy_Cheat_Sheet.html"
        },
        {
          "name": "MDN",
          "url": "https://developer.mozilla.org/en-US/docs/Web/HTTP/CSP"
        },
        {
          "name": "Content Security Policy Level 3",
          "url": "https://www.w3.org/TR/CSP3/"
        },
        {
          "name": "CSP Evaluator",
          "url": "https://csp-evaluator.withgoogle.com/"
        }
      ],
      "location": {
        "hostname": "http://pancakes",
        "method": "",
        "param": "",
        "path": ""
      },
      "severity": "Info",
      "solution": "If the target site is missing a CSP, please investigate the relevant URLs for enabling CSP. Otherwise, \nfollow the recommendations to determine if any actions are necessary."
    }
  ],
  "scan": {
    "analyzer": {
      "id": "gitlab-dast",
      "name": "GitLab DAST",
      "vendor": {
        "name": "GitLab"
      },
      "version": "3.0.45"
    },
    "end_time": "2022-12-08T06:07:07",
    "messages": [],
    "scanned_resources": [
      {
        "method": "GET",
        "type": "url",
        "url": "http://pancakes/"
      },
      {
        "method": "GET",
        "type": "url",
        "url": "http://pancakes/components.jsx"
      },
      {
        "method": "GET",
        "type": "url",
        "url": "http://pancakes/styles.css"
      }
    ],
    "scanner": {
      "id": "zaproxy-browserker",
      "name": "OWASP Zed Attack Proxy (ZAP) and Browserker",
      "url": "https://www.zaproxy.org",
      "version": "2.12.0",
      "vendor": {
        "name": "GitLab"
      }
    },
    "start_time": "2022-12-08T06:06:46",
    "status": "success",
    "type": "dast"
  }
}
